{
    "local": {
        "awscloudformation": {
            "AuthRoleName": "bga-20190426192314-authRole",
            "UnauthRoleArn": "arn:aws:iam::544215915840:role/bga-20190426192314-unauthRole",
            "AuthRoleArn": "arn:aws:iam::544215915840:role/bga-20190426192314-authRole",
            "Region": "us-east-1",
            "DeploymentBucketName": "bga-20190426192314-deployment",
            "UnauthRoleName": "bga-20190426192314-unauthRole",
            "StackName": "bga-20190426192314",
            "StackId": "arn:aws:cloudformation:us-east-1:544215915840:stack/bga-20190426192314/44365120-687a-11e9-828a-0eee31812ac2"
        },
        "categories": {
            "auth": {
                "cognitof55dcf31": {}
            }
        }
    }
}